f1pits-intro
…
Exemple step by step to use this package:

Step 1: Pit Stops data

To extract the pit stop data for a specific race or an entire season,
use the pits() function. Check the documentation for the
different arguments of the function.

# Accessing the data, for example, round 1, Australian GP 2025:

pits(1,2025) -> pitdata
#> Australian Grand Prix 2025 / Round: 1

pitdata
#> # A tibble: 34 × 8
#>     Pos. Team         Driver     `Time (sec)`   Lap Points Round  Year
#>    <dbl> <chr>        <chr>             <dbl> <dbl>  <dbl> <int> <dbl>
#>  1     1 Ferrari      Leclerc            2.32    34     25     1  2025
#>  2     2 Ferrari      Hamilton           2.38    47     18     1  2025
#>  3     3 Mercedes     Russell            2.43    34     15     1  2025
#>  4     4 Racing Bulls Tsunoda            2.47    47     12     1  2025
#>  5     5 Haas         Bearman            2.49     4     10     1  2025
#>  6     6 Haas         Ocon               2.54     4      8     1  2025
#>  7     7 Ferrari      Hamilton           2.55    33      0     1  2025
#>  8     8 Red Bull     Verstappen         2.56    46      6     1  2025
#>  9     9 Red Bull     Lawson             2.58     4      4     1  2025
#> 10    10 Racing Bulls Tsunoda            2.67    33      0     1  2025
#> # ℹ 24 more rows
…
